<?xml version="1.0" encoding="utf-8"?>
<!-- Generator: Adobe Illustrator 17.0.0, SVG Export Plug-In . SVG Version: 6.00 Build 0)  -->
<!DOCTYPE svg PUBLIC "-//W3C//DTD SVG 1.1//EN" "http://www.w3.org/Graphics/SVG/1.1/DTD/svg11.dtd">
<svg version="1.1" id="Layer_1" xmlns="http://www.w3.org/2000/svg"  x="0px" y="0px"
	 width="100px" height="100px" viewBox="0 0 100 100" enable-background="new 0 0 100 100" xml:space="preserve">
<g>
	<rect fill="#C0C0C0" width="100" height="100"/>
	<path fill="#FFFFFF" d="M72.98,44.3c-2.083,3.481-5.333,7.028-9.389,6.884c-0.946,1.618-1.952,3.843-3.069,6.423l-3.007,1.268
		c2.145-5.369,5.113-11.368,8.475-16.028c-1.535,1.213-4.001,3.751-6.1,6.378c-2.516-4.189-0.688-8.458,2.229-11.868
		c0.049,1.468,0.823,2.741,1.377,3.38c-0.2-1.214-0.261-3.412,0.447-5.388c1.645-1.677,3.126-2.912,4.842-4.034
		c-0.19,1.095,0.184,2.351,0.601,3.118c0.055-1.124,0.513-3.277,1.194-4.217c2.118-1.666,5.344-3.146,8.919-3.426
		c-0.186,2.229-0.999,5.901-2.346,8.259c-1.181,0.926-2.798,1.558-4.104,1.909c1.13,0.203,2.363,0.176,3.424-0.002
		c-0.617,1.703-1.265,3.272-2.287,5.216c-1.556,1.072-3.616,1.677-5.049,1.89C70.191,44.493,72.052,44.625,72.98,44.3z
		 M41.261,53.02l1.479,1.79l10.938-6.396l-1.53-1.76C52.146,46.653,41.261,53.02,41.261,53.02z M57.211,52.474l-1.53-1.758
		L44.67,57.152l1.479,1.79L57.211,52.474z M67.935,52.491c-0.965,0.465-1.95,0.781-2.947,0.912
		c-0.275,0.529-0.563,1.132-0.864,1.771l0.683,0.784c1.427,1.585,1.051,3.905-0.861,5.131c-1.771,1.139-12.24,7.736-14.634,9.247
		c-0.17-1.652-0.82-3.188-1.893-4.464c-1.075-1.276-14.014-16.903-17.24-21.033c-1.075-1.375-1.317-2.853-0.677-4.161
		c0.615-1.257,1.93-2.104,3.277-2.104c2.106,0,3.227,1.501,3.55,2.785c0.367,1.468-0.081,2.82-1.428,3.861l3.046,3.722
		l17.866-10.189c3.258-2.409,4.175-6.854,2.132-10.342c-1.417-2.413-4.031-3.909-6.825-3.909c-2.722,0-1.818-0.037-21.919,10.255
		c-2.828,1.354-4.698,4.095-4.698,7.338c0,1.993,0.706,4.024,2.037,5.699c3.27,4.111,17.327,21.048,17.452,21.214
		c0.85,1.13,0.979,2.564,0.344,3.834c-0.634,1.272-1.861,2.031-3.274,2.031c-2.106,0-3.227-1.501-3.55-2.787
		c-0.357-1.441,0.028-2.769,1.384-3.79l-2.926-3.54c-1.883,1.524-2.926,3.428-3.155,5.596c-0.533,5.054,3.493,9.15,8.278,9.15
		c1.366,0,3.004-0.406,4.22-1.169l21.604-13.627c2.193-1.522,3.419-4.082,3.419-6.639c0-1.707-0.55-3.332-1.576-4.59
		C68.757,53.476,67.935,52.491,67.935,52.491z M49.755,29.432c0.431-0.199,0.912-0.307,1.396-0.307c1.219,0,2.285,0.644,2.849,1.723
		c0.715,1.366,0.518,3.367-1.256,4.382l-11.68,6.618c-0.117-2.495-1.327-4.769-3.334-6.26
		C37.728,35.588,49.755,29.432,49.755,29.432z M54.56,60.101l0.827-2.074l0.571-1.396l-7.904,4.622l1.479,1.79
		C49.533,63.043,54.56,60.101,54.56,60.101z"/>
</g>
</svg>
