<?xml version="1.0" encoding="utf-8"?>
<!-- Generator: Adobe Illustrator 17.0.0, SVG Export Plug-In . SVG Version: 6.00 Build 0)  -->
<!DOCTYPE svg PUBLIC "-//W3C//DTD SVG 1.1//EN" "http://www.w3.org/Graphics/SVG/1.1/DTD/svg11.dtd">
<svg version="1.1" id="Layer_1" xmlns="http://www.w3.org/2000/svg"  x="0px" y="0px"
	 width="95px" height="30px" viewBox="0 0 95 30" enable-background="new 0 0 95 30" xml:space="preserve">
<g>
	<g>
		<g>
			<path fill="#009BDE" d="M74.331,6.839h-4.764c-0.326,0-0.603,0.237-0.654,0.559l-1.927,12.217
				c-0.038,0.241,0.148,0.459,0.392,0.459h2.445c0.228,0,0.422-0.166,0.458-0.391l0.546-3.463c0.051-0.322,0.328-0.559,0.654-0.559
				h1.508c3.138,0,4.949-1.519,5.423-4.529c0.213-1.316,0.009-2.351-0.608-3.075C77.125,7.26,75.924,6.839,74.331,6.839z
				 M74.88,11.301c-0.26,1.71-1.567,1.71-2.83,1.71h-0.719l0.504-3.193c0.031-0.193,0.197-0.335,0.392-0.335h0.329
				c0.86,0,1.672,0,2.091,0.49C74.899,10.266,74.975,10.7,74.88,11.301z"/>
			<path fill="#002F87" d="M40.349,6.839h-4.764c-0.326,0-0.603,0.237-0.654,0.559l-1.927,12.217
				c-0.038,0.241,0.148,0.459,0.392,0.459h2.275c0.326,0,0.603-0.237,0.654-0.559l0.52-3.296c0.051-0.322,0.328-0.559,0.654-0.559
				h1.508c3.138,0,4.949-1.519,5.423-4.529c0.213-1.316,0.009-2.351-0.608-3.075C43.144,7.26,41.943,6.839,40.349,6.839z
				 M40.899,11.301c-0.26,1.71-1.567,1.71-2.83,1.71h-0.719l0.504-3.193c0.03-0.193,0.197-0.335,0.392-0.335h0.329
				c0.86,0,1.672,0,2.091,0.49C40.918,10.266,40.994,10.7,40.899,11.301z"/>
			<path fill="#002F87" d="M54.59,11.246h-2.281c-0.196,0-0.362,0.142-0.392,0.335l-0.1,0.638l-0.16-0.231
				c-0.494-0.717-1.595-0.957-2.695-0.957c-2.52,0-4.673,1.91-5.093,4.589c-0.218,1.336,0.092,2.614,0.849,3.505
				c0.696,0.819,1.69,1.16,2.873,1.16c2.032,0,3.158-1.305,3.158-1.305l-0.102,0.634c-0.038,0.241,0.148,0.459,0.392,0.459h2.054
				c0.326,0,0.603-0.237,0.654-0.559l1.233-7.81C55.02,11.464,54.834,11.246,54.59,11.246z M51.41,15.687
				c-0.22,1.303-1.255,2.179-2.575,2.179c-0.662,0-1.191-0.213-1.532-0.616c-0.337-0.4-0.465-0.969-0.357-1.602
				c0.205-1.292,1.257-2.195,2.557-2.195c0.648,0,1.174,0.215,1.521,0.622C51.373,14.483,51.51,15.056,51.41,15.687z"/>
			<path fill="#009BDE" d="M88.571,11.246h-2.281c-0.196,0-0.362,0.142-0.392,0.335l-0.1,0.638l-0.159-0.231
				c-0.494-0.717-1.595-0.957-2.695-0.957c-2.52,0-4.673,1.91-5.093,4.589c-0.218,1.336,0.092,2.614,0.849,3.505
				c0.696,0.819,1.69,1.16,2.873,1.16c2.032,0,3.158-1.305,3.158-1.305l-0.102,0.634c-0.038,0.241,0.148,0.459,0.392,0.459h2.054
				c0.326,0,0.603-0.237,0.654-0.559l1.233-7.81C89.001,11.464,88.815,11.246,88.571,11.246z M85.391,15.687
				c-0.22,1.303-1.255,2.179-2.575,2.179c-0.662,0-1.191-0.213-1.532-0.616c-0.337-0.4-0.465-0.969-0.357-1.602
				c0.205-1.292,1.257-2.195,2.557-2.195c0.648,0,1.174,0.215,1.521,0.622C85.354,14.483,85.491,15.056,85.391,15.687z"/>
			<path fill="#002F87" d="M66.74,11.246h-2.293c-0.219,0-0.424,0.109-0.548,0.29l-3.163,4.659l-1.34-4.477
				c-0.084-0.28-0.342-0.472-0.634-0.472h-2.254c-0.272,0-0.464,0.268-0.376,0.525l2.525,7.411l-2.375,3.351
				c-0.186,0.263,0.002,0.627,0.324,0.627h2.291c0.217,0,0.42-0.106,0.544-0.285l7.626-11.006
				C67.249,11.606,67.061,11.246,66.74,11.246z"/>
			<path fill="#009BDE" d="M91.26,7.175l-1.955,12.44c-0.038,0.241,0.148,0.459,0.392,0.459h1.967c0.326,0,0.603-0.237,0.654-0.559
				l1.928-12.217c0.038-0.241-0.148-0.459-0.392-0.459h-2.201C91.456,6.839,91.29,6.982,91.26,7.175z"/>
		</g>
	</g>
	<path fill="#009BDE" d="M21.099,8.447c0.325-2.073-0.002-3.483-1.123-4.76c-1.234-1.406-3.464-2.009-6.317-2.009H5.377
		c-0.583,0-1.079,0.424-1.17,1L0.759,24.544c-0.068,0.431,0.265,0.822,0.702,0.822h5.112L6.22,27.603
		c-0.059,0.377,0.232,0.719,0.614,0.719h4.309c0.51,0,0.944-0.371,1.024-0.875l0.042-0.219l0.812-5.148l0.052-0.284
		c0.079-0.504,0.514-0.875,1.024-0.875h0.645c4.175,0,7.443-1.696,8.399-6.601c0.399-2.05,0.193-3.76-0.863-4.963
		C21.959,8.993,21.562,8.693,21.099,8.447L21.099,8.447"/>
	<path fill="#022169" d="M21.099,8.447c0.325-2.073-0.002-3.483-1.123-4.76c-1.234-1.406-3.464-2.009-6.317-2.009H5.377
		c-0.583,0-1.079,0.424-1.17,1L0.759,24.544c-0.068,0.431,0.265,0.822,0.702,0.822h5.112l1.284-8.143l-0.04,0.255
		c0.091-0.576,0.583-1,1.166-1h2.43c4.772,0,8.509-1.939,9.6-7.546C21.046,8.766,21.074,8.605,21.099,8.447"/>
	<path fill="#002F87" d="M9.237,8.475c0.055-0.346,0.277-0.63,0.576-0.774C9.95,7.636,10.102,7.6,10.261,7.6h6.491
		c0.769,0,1.486,0.05,2.142,0.156c0.187,0.03,0.37,0.065,0.547,0.104c0.177,0.039,0.349,0.083,0.515,0.132
		c0.083,0.024,0.165,0.05,0.246,0.077c0.322,0.107,0.622,0.233,0.897,0.379c0.325-2.073-0.002-3.483-1.123-4.76
		c-1.234-1.406-3.464-2.009-6.317-2.009H5.377c-0.583,0-1.079,0.424-1.17,1L0.759,24.544c-0.068,0.431,0.265,0.822,0.702,0.822
		h5.112l1.284-8.143L9.237,8.475z"/>
</g>
</svg>
