<?xml version="1.0" encoding="utf-8"?>
<!-- Generator: Adobe Illustrator 17.0.0, SVG Export Plug-In . SVG Version: 6.00 Build 0)  -->
<!DOCTYPE svg PUBLIC "-//W3C//DTD SVG 1.1//EN" "http://www.w3.org/Graphics/SVG/1.1/DTD/svg11.dtd">
<svg version="1.1" id="Layer_1" xmlns="http://www.w3.org/2000/svg"  x="0px" y="0px"
	 width="100px" height="100px" viewBox="0 0 100 100" enable-background="new 0 0 100 100" xml:space="preserve">
<g>
	<rect fill="#C0C0C0" width="100" height="100"/>
	<path fill="#FFFFFF" d="M81.65,53.463c0-5.415-1.989-7.981-3.738-9.202c1.032-4.02,2.716-13.573-2.54-19.541
		c-2.474-2.809-6.499-4.062-10.867-3.36c-3.431-1.47-8.614-3.01-14.506-3.01s-11.075,1.541-14.506,3.01
		c-4.368-0.701-8.392,0.549-10.867,3.36c-5.257,5.969-3.569,15.521-2.54,19.541c-1.749,1.221-3.737,3.785-3.737,9.202
		c0,2.627,0.86,5.62,2.601,8.181c-1.279,3.748,1.379,8.042,6.021,7.528c-0.838,4.278,3.6,7.722,8.128,5.613
		c-0.53,3.067,3.748,6.804,9.081,4.138c1.77,1.508,3.133,2.727,5.813,2.727c3.047,0,4.869-1.696,6.006-2.73
		c5.333,2.669,9.426-1.071,8.899-4.138c4.531,2.11,8.967-1.335,8.129-5.613c4.642,0.515,7.3-3.78,6.021-7.528
		C80.787,59.083,81.65,56.088,81.65,53.463z M50,70.791c-4.542,0-6.33-4.966-6.33-4.966h12.66C56.33,65.825,54.716,70.791,50,70.791
		z M59.437,62.9c-2.775-1.359-6.475-2.97-9.437-0.849c-2.965-2.12-6.662-0.509-9.437,0.849C29.351,68.386,19.4,52.29,25.155,48.542
		c0.538-0.348,1.287-0.356,1.773-0.14c1.743,0.77,3.708-0.504,3.708-2.41c0-5.84,1.825-11.694,5.681-15.793l0.04-0.027
		c6.868-6.847,20.417-6.847,27.285,0l0.042,0.029c3.856,4.098,5.681,9.954,5.681,15.791c0,1.915,1.973,3.178,3.708,2.41
		c0.372-0.166,1.15-0.264,1.77,0.14C80.513,52.213,70.85,68.483,59.437,62.9z M59.89,43.407c-2.965,0-5.523,1.659-6.876,4.077
		c-0.984-0.306-1.963-0.459-3.014-0.459s-2.031,0.153-3.014,0.459c-1.353-2.418-3.911-4.077-6.876-4.077
		c-4.362,0-7.912,3.55-7.912,7.912s3.55,7.912,7.912,7.912c3.247,0,6.027-1.973,7.245-4.777c0.649-1.493,1.039-3.431,2.646-3.431
		s1.999,1.938,2.646,3.431c1.218,2.804,3.999,4.777,7.245,4.777c4.362,0,7.913-3.55,7.913-7.912S64.253,43.407,59.89,43.407z
		 M40.11,55.275c-2.184,0-3.956-1.772-3.956-3.956c0-2.184,1.772-3.956,3.956-3.956c2.184,0,3.956,1.772,3.956,3.956
		C44.065,53.502,42.293,55.275,40.11,55.275z M59.89,55.275c-2.184,0-3.956-1.772-3.956-3.956c0-2.184,1.772-3.956,3.956-3.956
		s3.956,1.772,3.956,3.956C63.847,53.502,62.075,55.275,59.89,55.275z"/>
</g>
</svg>
