<?xml version="1.0" encoding="utf-8"?>
<!-- Generator: Adobe Illustrator 17.0.0, SVG Export Plug-In . SVG Version: 6.00 Build 0)  -->
<!DOCTYPE svg PUBLIC "-//W3C//DTD SVG 1.1//EN" "http://www.w3.org/Graphics/SVG/1.1/DTD/svg11.dtd">
<svg version="1.1" id="Layer_1" xmlns="http://www.w3.org/2000/svg" xmlns:xlink="http://www.w3.org/1999/xlink" x="0px" y="0px"
	 width="16px" height="16px" viewBox="0 0 16 16" enable-background="new 0 0 16 16" xml:space="preserve">
<g>
	<polygon fill="#FF462E" points="14.84,0.23 7.03,3.687 7.03,15.273 4.682,16 4.682,2.992 	"/>
	<polygon fill="#FF462E" points="12.116,0 1.16,0.932 1.16,13.755 2.76,13.484 2.76,2.302 	"/>
	<polygon fill="#FF462E" points="16,0.934 11.938,5.364 11.938,16 9.59,16 9.59,4.668 	"/>
</g>
</svg>
