<?xml version="1.0" encoding="utf-8"?>
<!-- Generator: Adobe Illustrator 17.0.0, SVG Export Plug-In . SVG Version: 6.00 Build 0)  -->
<!DOCTYPE svg PUBLIC "-//W3C//DTD SVG 1.1//EN" "http://www.w3.org/Graphics/SVG/1.1/DTD/svg11.dtd">
<svg version="1.1" id="Layer_1" xmlns="http://www.w3.org/2000/svg"  x="0px" y="0px"
	 width="20px" height="20px" viewBox="0 0 20 20" enable-background="new 0 0 20 20" xml:space="preserve">
<g>
	<g>
		<path fill="#ff462e" d="M19.291,11.666c-0.007,0.035-0.011,0.071-0.017,0.106L19.24,11.57
			C19.259,11.602,19.274,11.634,19.291,11.666c0.103-0.562,0.157-1.137,0.157-1.712c0-1.275-0.249-2.512-0.743-3.676
			c-0.476-1.125-1.157-2.135-2.024-3.002c-0.867-0.867-1.877-1.548-3.001-2.023c-1.164-0.493-2.401-0.742-3.676-0.742
			c-0.601,0-1.203,0.057-1.788,0.169L8.212,0.68c0.033,0.017,0.066,0.033,0.099,0.051L8.112,0.699c0.033-0.007,0.067-0.013,0.1-0.02
			C7.409,0.252,6.505,0.024,5.59,0.024c-1.493,0-2.897,0.581-3.953,1.638C0.582,2.719,0,4.123,0,5.616
			C0,6.566,0.245,7.5,0.703,8.326c0.006-0.034,0.01-0.069,0.017-0.103l0.034,0.198C0.736,8.39,0.721,8.358,0.703,8.326
			C0.61,8.861,0.561,9.408,0.561,9.954c0,1.275,0.249,2.512,0.743,3.676c0.475,1.125,1.156,2.135,2.023,3.001
			c0.868,0.867,1.877,1.549,3.003,2.023c1.164,0.493,2.401,0.743,3.676,0.743c0.555,0,1.111-0.051,1.654-0.147
			c-0.032-0.018-0.064-0.034-0.096-0.053l0.202,0.035c-0.035,0.007-0.07,0.011-0.105,0.017c0.837,0.473,1.783,0.725,2.751,0.725
			c1.493,0,2.897-0.581,3.953-1.637C19.419,17.283,20,15.879,20,14.386C19.999,13.432,19.753,12.495,19.291,11.666L19.291,11.666z
			 M10.043,15.737c-3.355,0-4.856-1.649-4.856-2.886c0-0.634,0.468-1.079,1.113-1.079c1.436,0,1.064,2.061,3.743,2.061
			c1.371,0,2.129-0.745,2.129-1.507c0-0.458-0.226-0.967-1.129-1.189l-2.984-0.745C5.655,9.791,5.219,8.492,5.219,7.27
			c0-2.536,2.387-3.488,4.629-3.488c2.065,0,4.5,1.141,4.5,2.663c0,0.652-0.565,1.031-1.209,1.031c-1.225,0-1-1.696-3.468-1.696
			c-1.225,0-1.903,0.555-1.903,1.348c0,0.792,0.967,1.045,1.807,1.237l2.209,0.49c2.419,0.539,3.033,1.952,3.033,3.282
			C14.817,14.199,13.235,15.737,10.043,15.737z M11.563,19.199c0.032,0.019,0.065,0.035,0.096,0.053
			c0.035-0.007,0.071-0.011,0.105-0.017L11.563,19.199z M19.274,11.772c0.007-0.035,0.011-0.071,0.017-0.106
			c-0.017-0.032-0.033-0.064-0.051-0.095L19.274,11.772z M0.72,8.223C0.713,8.257,0.709,8.292,0.703,8.326
			C0.721,8.358,0.737,8.39,0.754,8.421L0.72,8.223z M8.311,0.731C8.279,0.713,8.246,0.698,8.212,0.681
			c-0.033,0.007-0.067,0.013-0.1,0.02L8.311,0.731z"/>
	</g>
</g>
</svg>
