<?xml version="1.0" encoding="utf-8"?>
<!-- Generator: Adobe Illustrator 17.0.0, SVG Export Plug-In . SVG Version: 6.00 Build 0)  -->
<!DOCTYPE svg PUBLIC "-//W3C//DTD SVG 1.1//EN" "http://www.w3.org/Graphics/SVG/1.1/DTD/svg11.dtd">
<svg version="1.1" id="Layer_1" xmlns="http://www.w3.org/2000/svg"  x="0px" y="0px"
	 width="200px" height="200px" viewBox="0 0 200 200" enable-background="new 0 0 200 200" xml:space="preserve">
<g>
	<rect fill="#C0C0C0" width="200" height="200"/>
	<path fill="#FFFFFF" d="M145.961,88.6c-4.166,6.962-10.666,14.057-18.777,13.769c-1.892,3.235-3.905,7.686-6.137,12.846
		l-6.013,2.535c4.29-10.738,10.226-22.737,16.949-32.055c-3.071,2.425-8.002,7.503-12.2,12.756
		c-5.033-8.379-1.375-16.917,4.459-23.737c0.097,2.937,1.646,5.482,2.754,6.76c-0.399-2.428-0.522-6.825,0.894-10.775
		c3.29-3.354,6.252-5.825,9.685-8.067c-0.38,2.19,0.367,4.702,1.201,6.237c0.11-2.247,1.027-6.554,2.388-8.434
		c4.235-3.332,10.688-6.293,17.838-6.852c-0.372,4.459-1.998,11.803-4.693,16.518c-2.361,1.852-5.596,3.116-8.208,3.818
		c2.259,0.407,4.725,0.353,6.847-0.005c-1.234,3.406-2.53,6.545-4.574,10.432c-3.111,2.145-7.232,3.354-10.097,3.781
		C140.383,88.985,144.104,89.251,145.961,88.6z M82.522,106.039l2.957,3.58l21.876-12.791l-3.061-3.52
		C104.293,93.307,82.522,106.039,82.522,106.039z M114.423,104.949l-3.061-3.516l-22.022,12.87l2.957,3.58L114.423,104.949z
		 M135.869,104.981c-1.929,0.931-3.9,1.562-5.894,1.825c-0.551,1.058-1.127,2.264-1.728,3.543l1.366,1.567
		c2.855,3.171,2.103,7.81-1.723,10.261c-3.543,2.277-24.48,15.473-29.269,18.494c-0.34-3.305-1.641-6.376-3.786-8.928
		c-2.15-2.552-28.027-33.806-34.48-42.065c-2.15-2.751-2.635-5.706-1.353-8.323c1.229-2.515,3.859-4.208,6.554-4.208
		c4.213,0,6.453,3.002,7.1,5.569c0.733,2.937-0.161,5.641-2.855,7.723l6.091,7.443l35.732-20.378
		c6.517-4.817,8.35-13.709,4.263-20.684c-2.833-4.826-8.062-7.818-13.65-7.818c-5.445,0-3.635-0.074-43.838,20.51
		c-5.656,2.709-9.395,8.19-9.395,14.676c0,3.987,1.412,8.049,4.074,11.398c6.54,8.223,34.654,42.097,34.905,42.428
		c1.701,2.259,1.957,5.129,0.688,7.667c-1.269,2.544-3.722,4.061-6.549,4.061c-4.213,0-6.453-3.002-7.1-5.574
		c-0.715-2.883,0.055-5.537,2.768-7.58l-5.852-7.081c-3.767,3.048-5.852,6.857-6.311,11.192C64.562,150.807,72.614,159,82.184,159
		c2.731,0,6.008-0.812,8.439-2.337l43.207-27.253c4.387-3.044,6.838-8.163,6.838-13.278c0-3.414-1.1-6.664-3.153-9.181
		C137.513,106.952,135.869,104.981,135.869,104.981z M99.509,58.864c0.862-0.399,1.825-0.614,2.791-0.614
		c2.438,0,4.57,1.288,5.698,3.446c1.43,2.731,1.035,6.733-2.512,8.764l-23.36,13.236c-0.234-4.991-2.654-9.538-6.669-12.521
		C75.456,71.175,99.509,58.864,99.509,58.864z M109.12,120.202l1.654-4.148l1.142-2.791l-15.808,9.244l2.957,3.58
		C99.065,126.087,109.12,120.202,109.12,120.202z"/>
</g>
</svg>
